{
    "name": "flixel-templates",
    "url": "https://github.com/HaxeFlixel/flixel-templates",
    "license": "MIT",
    "tags": ["game", "openfl", "flash", "neko", "cpp", "android", "ios", "cross", "vscode"],
    "description": "Templates for HaxeFlixel projects",
    "version": "2.5.5",
    "releasenote": "Modernize launch.json to use ${workspaceFolder}.",
    "contributors": ["haxeflixel", "Gama11"],
    "dependencies": {}
}
